Ladící telefon 702131185

emulator id:
74c0185db2d8e0c
1d49cd935abc1bed
40f307c2c7b96034
bc378b57d42a1853 - Maxik člen

příkazy k ladění

http://localhost/atlantus.cz/cloud/infoo/comm.php?
http://atlantus.cz/cloud/infoo/comm.php?

check
http://localhost/atlantus/cloud/infoo/comm.php?&action=check&phoneNumber=420702131185&senderid=d1e57c8213d0ee8d&userid=197&sender=Test&sentTime=2017-01-24 14:54:26&latitude=50.2347965&longitude=14.5836573&typZjisteniLokace=10&osverze=16
http://atlantus.cz/cloud/infoo/comm.php?&action=check&phoneNumber=420702131185&senderid=d1e57c8213d0ee8d&userid=197&sender=Test&sentTime=2017-01-24 14:54:26&latitude=50.2347965&longitude=14.5836573&typZjisteniLokace=10&osverze=16



check s userid=217
http://atlantus.cz/cloud/infoo/comm.php?&action=check&senderid=d16e4d843d5dd644&userid=182&sender=Tablet&sentTime=2017-01-08 02:13:49&latitude=37.421998333333335&longitude=-122.08400000000002&osverze=22

local check

vrat souradnice
http://atlantus.cz/cloud/infoo/comm.php?&action=cmd_navrat_vsech_souradnic&senderid=96de1871665cf485&userid=176&sender=Tata&sentTime=2017-01-08 04:02:23&latitude=0.0&longitude=0.0&osverze=22&pritelid=182


nacti pratele
http://atlantus.cz/cloud/infoo/comm.php?&action=cmd_nacti_pratele&phoneNumber=420607274596&senderid=9b7f944b214be614&userid=78&sender=Stepan&sentTime=2017-01-24 16:47:21&latitude=0.0&longitude=0.0&typZjisteniLokace=0&osverze=22

nacti pratele local
http://localhost/atlantus/cloud/infoo/comm.php?&action=cmd_nacti_pratele&phoneNumber=420607274596&senderid=9b7f944b214be614&userid=78&sender=Stepan&sentTime=2017-01-24 16:47:21&latitude=0.0&longitude=0.0&typZjisteniLokace=0&osverze=22

nacti pratele - testovací můj foun
http://atlantus.cz/cloud/infoo/comm.php?&action=cmd_nacti_pratele&senderid=d1968dfffc804e05&userid=163&sender=Tata&sentTime=2017-01-08 07:23:41&latitude=0.0&longitude=0.0&osverze=22

vrat souradnice muj foun
http://atlantus.cz/cloud/infoo/comm.php?&action=cmd_navrat_vsech_souradnic&senderid=d1968dfffc804e05&userid=163&sender=Tata&sentTime=2017-01-08 04:02:23&latitude=0.0&longitude=0.0&osverze=22&pritelid=197


http://atlantus.cz/cloud/infoo/comm.php?&action=cmd_update_user&action=cmd_update_user&userid=163&sender=%C5%A1t%C4%9Bpula&pin=&email=&sentTime=2017-01-22 15:07:34&phoneNumber=+420724258693&smspovoleno=0&pouzesms=0&jeRidici=1&povolenoWiFi=0&dataPovolena=0&ostatni=0&vnuceno=1&timeStamp=2017-01-22 15:07:34

http://atlantus.cz/cloud/infoo/comm.php?&action=cmd_udaje_user&senderid=69fc2ed3fc64d466&userid=219&sender=ttt&sentTime=2017-01-15 18:42:28&latitude=0.0&longitude=0.0&osverze=22&phone_number=15555215554

Nastaveni SMS
http://atlantus.cz/cloud/infoo/comm.php?&action=cmd_nastav_bod&pritelid=216&arLat=50.0774286&arLng=14.4231364&arNazevBodu=Doma
http://atlantus.cz/cloud/infoo/comm.php?&action=cmd_nastav_bod&pritelid=216&arLat=50.0860766666667~50.0774286&arLng=14.4567083333333~14.4231364&arNazevBodu=Skola~Doma

Načtení přátel i nepřiřazených
http://atlantus.cz/cloud/infoo/comm.php?&action=cmd_nacti_pratele&senderid=40f307c2c7b96034&userid=215&sender=Tata&sentTime=2017-01-17 06:06:36&latitude=0.0&longitude=0.0&osverze=22
http://atlantus.cz/cloud/infoo/comm.php?&action=cmd_nacti_pratele&senderid=40f307c2c7b96034&userid=215&sender=Tata&sentTime=2017-01-17 06:08:53&latitude=0.0&longitude=0.0&osverze=22&neprirazene=1
http://atlantus.cz/cloud/infoo/comm.php?&action=cmd_udaje_user&phoneNumber=420724258693&senderid=d1968dfffc804e05&userid=163&sender=false&sentTime=2017-01-24 10:36:20&latitude=0.0&longitude=0.0&typZjisteniLokace=0&osverze=22

lokální

http://localhost/atlantus/cloud/infoo/comm.php?&action=cmd_vystraha&phoneNumber=1 234-567-89&senderid=bc378b57d42a1853&userid=358&sender=Maxik&sentTime=2017-03-14 11:12:08&sentTimeSec=1489486336&latitude=49.1986&longitude=16.6106&casSouradnic=1489486336&typZjisteniLokace=20&osverze=23&verze=80&baterie=100&typVystrahy=10&pritelid=358


SMS ID pro emulátor

Maxik +420123456789

Rodic +420987654321

Dotazy +420123456789
#infoo#coor#148252168511
#infoo#coor#148252168512

Odpovědi +420987654321:
#infoo#codp#148252168512#50.08607666666667:14.456708333333331

Žádost o párování z telefonu člena rodiče
z čísla 123456789
#infoo#getm#1485356248757

Příjem párování zaslání aid (cisty)
z čísla 420123321123
#infoo#maid#69fc2ed3fc64d466

Číslo rodiče
111111111 nechci do sms montovat aid - snadno odchytitelné

Párování Maxika
 - posílá na rodiče z čísla 777777777 #infoo#maid#901dcb3c0380d779

Robot
z čísla 420123321123 (clen rodiny)
na číslo 123456789
#infoo#maid#c55ee1d36c871504

SMShash
http://localhost/atlantus/cloud/infoo/comm.php?&action=cmd_sms_hash&senderid=69fc2ed3fc64d466&pritelid=255&phoneNumber=+420123321123&zalozil=40f307c2c7b96034&userid=215


http://atlantus.cz/cloud/infoo/comm.php?&action=cmd_nacti_pratele&phoneNumber=420 724 258 693&senderid=d1968dfffc804e05&userid=163&sender=T%C3%A1ta&sentTime=2017-02-14 16:28:29&latitude=0.0&longitude=0.0&typZjisteniLokace=0&osverze=22&verze=&baterie=

Prednastav
http://localhost/atlantus/cloud/infoo/comm.php?&action=cmd_prednastav&senderid=40f307c2c7b96034&userid=272&phoneNumber=+420123456789&sender=Maxik&jeRidici=0&povolenoWiFi=1&dataPovolena=1&smspovoleno=1&pouzesms=0&ostatni=&pin=7777&timeStamp=2017-02-05 19:33:17&pritelPhoneNumber=+420123456789


Pratele
http://localhost/atlantus/cloud/infoo/comm.php?&action=cmd_data_online&phoneNumber=1 234-567-89&senderid=bc378b57d42a1853&userid=356&sender=Max&sentTime=2017-03-10 15:14:23&sentTimeSec=1489155200&latitude=49.1997&longitude=16.6066&casSouradnic=1489155200&typZjisteniLokace=20&osverze=23&verze=79&baterie=100



http://atlantus.cz/cloud/infoo/comm.php?&action=cmd_nacti_pratele&phoneNumber=111111111&senderid=40f307c2c7b96034&userid=272&sender=Tata&sentTime=2017-02-06 21:33:05&latitude=0.0&longitude=0.0&typZjisteniLokace=0&osverze=22&neprirazene=1
c77Bjk

Sledování polohy telefonu GPS. Určeno pro sledování pohybu dětí (škola, domov)

Tracking the phone's location. Designed for monitoring the movement of children

316



Dobrý den,
děkujeme Vám, že používáte naši aplikaci.
Kdybyste měli s čímkoli problém, zkuste naše stránky http://fijfij.cz nebo napište na tuto e-mailovou adresu.
S pozdravem
vývojáři

Dobrý večer,
ďakujeme Vám, že používate našu aplikáciu.
Keby ste mali s čímkoľvek problém, skúste naše stránky http://fijfij.cz alebo napíšte na túto e-mailovú adresu.
S pozdravom
vývojári

http://atlantus.cz/cloud/infoo/&action=cmd_online_start&phoneNumber=420 724 258 693&senderid=be90cbc3a4809d7&userid=163&sender=T%C3%A1ta&sentTime=2017-03-10 15:55:12&sentTimeSec=1489157760&latitude=0.0&longitude=0.0&casSouradnic=0&typZjisteniLokace=10&osverze=23&verze=79&baterie=&pritelid=391

50.0758379,14.3481998

http://localhost/atlantus/cloud/infoo/comm.php?&action=cmd_send_hash&senderid=4c869c49b2c880cd&spojovaciKlic=ccc

http://atlantus.cz/cloud/infoo/comm.php?&action=cmd_staying_alive&senderid=cf30250737782955&userid=792&pritelid=0

http://localhost/atlantus/cloud/infoo/comm.php?&action=fb_token&senderid=52d6ae689e4cdd85&fbt=f-gJ7IZsJpo:APA91bEDb7AY7mZK-BgAbXEnIAnthbrIW_xsSkajKl4s1lss6g034vLOEy1ZEyY9BHXzyklALjpSJ7J_oYxKRoXj-w7sO4kkD2WL8UV77bmGPGPr-SfJ5q_ic0GEH7RrtnQ3pzHq62R2
http://atlantus.cz/cloud/infoo/test.php?id=10
http://localhost/atlantus/cloud/infoo/test.php


http://localhost/atlantus/cloud/infoo/comm.php?&action=posli_notifikaci&userid=365&pritelid=381&msgText=Halo