{
  "project_info": {
    "project_number": "825207873326",
    "firebase_url": "https://fijfij-149610.firebaseio.com",
    "project_id": "fijfij-149610",
    "storage_bucket": "fijfij-149610.appspot.com"
  },
  "client": [
    {
      "client_info": {
        "mobilesdk_app_id": "1:825207873326:android:44f12b16073a4789",
        "android_client_info": {
          "package_name": "cz.fijfij"
        }
      },
      "oauth_client": [
        {
          "client_id": "825207873326-eu8daaam6b7sf5aod1o5qpho0l2a7jfa.apps.googleusercontent.com",
          "client_type": 3
        }
      ],
      "api_key": [
        {
          "current_key": "AIzaSyAXEAaa9K_lZEXk5d_7bRjNtGeFpvAoLm0"
        }
      ],
      "services": {
        "analytics_service": {
          "status": 1
        },
        "appinvite_service": {
          "status": 1,
          "other_platform_oauth_client": []
        },
        "ads_service": {
          "status": 2
        }
      }
    }
  ],
  "configuration_version": "1"
}